Identify significantly different interactions across groups with replicate samples • celltalker
…
## Check out the interactions - PBMC
pbmc_interactions %>%
  mutate(p_val_adj=p.adjust(p_val,method="fdr")) %>%
  filter(p_val_adj<0.05)

## Registered S3 method overwritten by 'cli':
##   method     from    
##   print.boxx spatstat

## # A tibble: 49 x 10
##    interaction_pai… interaction value scram_mean scram_sd   p_val cell_type1
##    <chr>            <chr>       <dbl>      <dbl>    <dbl>   <dbl> <chr>     
##  1 CD14+CD16- mono… ADAM17_ITG… 0.459     0.275    0.0373 4.40e-7 CD14+CD16…
##  2 CD1C+ DCs_CD14+… ADAM28_ITG… 0.258     0.131    0.0294 7.75e-6 CD1C+ DCs 
##  3 B cells_CD1C+ D… ADAM28_ITG… 0.414     0.152    0.0444 1.82e-9 B cells   
##  4 CD14-CD16+ mono… BTLA_CD247  0.824     0.204    0.139  3.92e-6 CD14-CD16…
##  5 CD14+CD16- mono… BTLA_TNFRS… 0.293     0.200    0.0208 4.48e-6 CD14+CD16…
##  6 CD8 T cells_CD8… CALR_HLA-F  0.717     0.474    0.0726 4.06e-4 CD8 T cel…
##  7 CD8 T cells_CD4… CCL5_CXCR3  1.12      0.0936   0.0281 0.      CD8 T cel…
##  8 CD14+CD16- mono… CD14_ITGA4  0.854     0.183    0.0805 0.      CD14+CD16…
##  9 CD14+CD16- mono… CD14_ITGA4  0.914     0.199    0.0814 0.      CD14+CD16…
## 10 CD14+CD16- mono… CD14_ITGA4  0.945     0.196    0.0754 0.      CD14+CD16…
## # … with 39 more rows, and 3 more variables: cell_type2 <chr>,
## #   interact_ratio <dbl>, p_val_adj <dbl>
## Run celltalker - Tonsil
tonsil_interactions <- celltalk(input_object=ser_split[["Tonsil"]],
  metadata_grouping="cell_types",
  ligand_receptor_pairs=ramilowski_pairs,
  number_cells_required=50,
  min_expression=50,
  max_expression=20000,
  scramble_times=10)

## Check out the interactions - tonsil
tonsil_interactions %>%
  mutate(p_val_adj=p.adjust(p_val,method="fdr")) %>%
  filter(p_val_adj<0.05)

## # A tibble: 50 x 10
##    interaction_pai… interaction value scram_mean scram_sd   p_val cell_type1
##    <chr>            <chr>       <dbl>      <dbl>    <dbl>   <dbl> <chr>     
##  1 B cells_CD1C+ D… ADAM28_ITG… 0.428     0.166    0.0681 6.03e-5 B cells   
##  2 CD1C+ DCs_NK ce… CALR_HLA-F  1.12      0.800    0.0815 4.58e-5 CD1C+ DCs 
##  3 CD1C+ DCs_NK ce… CD14_ITGA4  0.413     0.125    0.0611 1.17e-6 CD1C+ DCs 
##  4 CD1C+ DCs_CD1C+… CD14_ITGA4  0.339     0.0942   0.0541 3.12e-6 CD1C+ DCs 
##  5 CD1C+ DCs_CD1C+… CD14_ITGB1  0.450     0.217    0.0493 1.22e-6 CD1C+ DCs 
##  6 CD4 T cells_B c… CD40LG_CD40 0.643     0.299    0.106  5.77e-4 CD4 T cel…
##  7 CD4 T cells_B c… CD40LG_ITG… 0.286     0.0220   0.0164 0.      CD4 T cel…
##  8 CD4 T cells_Pla… CD40LG_ITG… 0.277     0.0229   0.0156 0.      CD4 T cel…
##  9 CD4 T cells_CD1… CD40LG_ITG… 0.304     0.0522   0.0805 8.88e-4 CD4 T cel…
## 10 CD4 T cells_CD4… CD40LG_TRA… 0.319     0.0601   0.0138 0.      CD4 T cel…
## # … with 40 more rows, and 3 more variables: cell_type2 <chr>,
## #   interact_ratio <dbl>, p_val_adj <dbl>
…
